
# * Global variables
int i;
double r;
char c;

# * Functions
int f(int pi, double pr) {
  double lr;
  int li;
  li = pi;
  lr = pr;
  return pi;
}

# * Main program
void main() {
  struct { 
    int integer;
    char character;
  } pair;

  i = 3;
  c = 'a';
  r = 3.8;
  pair.integer = i;
  pair.character = c;
  f(i, r);
}


